{
  "data": [
    {
      "id": "user_2aB3C4d5E6",
      "email": "alice.johnson@example.com",
      "name": "Alice Johnson",
      "username": "alicej",
      "created_at": "2023-06-15T10:30:00Z",
      "updated_at": "2024-01-10T14:22:15Z",
      "status": "active",
      "role": "admin",
      "profile": {
        "avatar_url": "https://api.example.com/avatars/alicej.jpg",
        "bio": "Software engineer passionate about web technologies",
        "location": "San Francisco, CA",
        "website": "https://alicejohnson.dev"
      },
      "settings": {
        "email_notifications": true,
        "two_factor_enabled": true,
        "timezone": "America/Los_Angeles"
      }
    },
    {
      "id": "user_3bC4D5e6F7",
      "email": "bob.smith@example.com",
      "name": "Bob Smith",
      "username": "bobsmith",
      "created_at": "2023-07-22T09:15:30Z",
      "updated_at": "2024-01-12T11:45:22Z",
      "status": "active",
      "role": "user",
      "profile": {
        "avatar_url": "https://api.example.com/avatars/bobsmith.jpg",
        "bio": "Data scientist exploring machine learning",
        "location": "New York, NY",
        "website": "https://bobsmith.io"
      },
      "settings": {
        "email_notifications": false,
        "two_factor_enabled": true,
        "timezone": "America/New_York"
      }
    },
    {
      "id": "user_4cD5E6f7G8",
      "email": "carol.white@example.com",
      "name": "Carol White",
      "username": "carolw",
      "created_at": "2023-08-10T16:20:45Z",
      "updated_at": "2024-01-14T08:30:10Z",
      "status": "active",
      "role": "moderator",
      "profile": {
        "avatar_url": "https://api.example.com/avatars/carolw.jpg",
        "bio": "Community manager and content creator",
        "location": "Austin, TX",
        "website": null
      },
      "settings": {
        "email_notifications": true,
        "two_factor_enabled": false,
        "timezone": "America/Chicago"
      }
    },
    {
      "id": "user_5dE6F7g8H9",
      "email": "david.brown@example.com",
      "name": "David Brown",
      "username": "davidb",
      "created_at": "2023-09-05T12:10:20Z",
      "updated_at": "2024-01-15T10:15:55Z",
      "status": "inactive",
      "role": "user",
      "profile": {
        "avatar_url": "https://api.example.com/avatars/davidb.jpg",
        "bio": "Backend developer specializing in microservices",
        "location": "Seattle, WA",
        "website": "https://davidbrown.codes"
      },
      "settings": {
        "email_notifications": true,
        "two_factor_enabled": true,
        "timezone": "America/Los_Angeles"
      }
    },
    {
      "id": "user_6eF7G8h9I0",
      "email": "emma.davis@example.com",
      "name": "Emma Davis",
      "username": "emmad",
      "created_at": "2023-10-18T14:45:12Z",
      "updated_at": "2024-01-13T16:22:40Z",
      "status": "active",
      "role": "user",
      "profile": {
        "avatar_url": "https://api.example.com/avatars/emmad.jpg",
        "bio": "UX designer with a focus on accessibility",
        "location": "Boston, MA",
        "website": "https://emmadavis.design"
      },
      "settings": {
        "email_notifications": true,
        "two_factor_enabled": false,
        "timezone": "America/New_York"
      }
    },
    {
      "id": "user_7fG8H9i0J1",
      "email": "frank.miller@example.com",
      "name": "Frank Miller",
      "username": "frankm",
      "created_at": "2023-11-03T11:30:25Z",
      "updated_at": "2024-01-11T09:18:33Z",
      "status": "active",
      "role": "user",
      "profile": {
        "avatar_url": "https://api.example.com/avatars/frankm.jpg",
        "bio": "DevOps engineer automating everything",
        "location": "Denver, CO",
        "website": null
      },
      "settings": {
        "email_notifications": false,
        "two_factor_enabled": true,
        "timezone": "America/Denver"
      }
    },
    {
      "id": "user_8gH9I0j1K2",
      "email": "grace.wilson@example.com",
      "name": "Grace Wilson",
      "username": "gracew",
      "created_at": "2023-12-01T08:22:40Z",
      "updated_at": "2024-01-15T12:45:18Z",
      "status": "active",
      "role": "admin",
      "profile": {
        "avatar_url": "https://api.example.com/avatars/gracew.jpg",
        "bio": "Technical writer and documentation specialist",
        "location": "Portland, OR",
        "website": "https://gracewilson.com"
      },
      "settings": {
        "email_notifications": true,
        "two_factor_enabled": true,
        "timezone": "America/Los_Angeles"
      }
    },
    {
      "id": "user_9hI0J1k2L3",
      "email": "henry.taylor@example.com",
      "name": "Henry Taylor",
      "username": "henryt",
      "created_at": "2024-01-05T15:10:55Z",
      "updated_at": "2024-01-14T14:30:22Z",
      "status": "active",
      "role": "user",
      "profile": {
        "avatar_url": "https://api.example.com/avatars/henryt.jpg",
        "bio": "Mobile app developer iOS & Android",
        "location": "Miami, FL",
        "website": "https://henrytaylor.app"
      },
      "settings": {
        "email_notifications": false,
        "two_factor_enabled": false,
        "timezone": "America/New_York"
      }
    }
  ],
  "links": {
    "self": "https://api.example.com/users?page=2&per_page=8",
    "first": "https://api.example.com/users?page=1&per_page=8",
    "prev": "https://api.example.com/users?page=1&per_page=8",
    "next": "https://api.example.com/users?page=3&per_page=8",
    "last": "https://api.example.com/users?page=15&per_page=8"
  },
  "meta": {
    "current_page": 2,
    "per_page": 8,
    "total": 118,
    "total_pages": 15
  }
}
